…
``` r
# install.packages("readgp1") # not yet
remotes::install_github("npjc/readgp1")
```

## Example

Read the raw data into tidy tibble:

``` r
library(readgp1)
path <- gp1_example("GP1-Results_jan27.txt")
read_gp1(path)
#> # A tibble: 21,168 x 4
#>    plate well  runtime measure
#>    <int> <chr>   <int>   <dbl>
#>  1     0 A1          0   0.141
#>  2     0 A1        767   0.141
#>  3     0 A1       1555   0.142
#>  4     0 A1       2343   0.148
#>  5     0 A1       3131   0.146
#>  6     0 A1       3919   0.145
#>  7     0 A1       4707   0.147
#>  8     0 A1       5495   0.149
#>  9     0 A1       6283   0.151
#> 10     0 A1       7071   0.152
#> # … with 21,158 more rows
read_gp1(path, all_fields = TRUE)
#> # A tibble: 21,168 x 6
#>    plate well  datetime            runtime measure_type measure
#>    <int> <chr> <dttm>                <int> <chr>          <dbl>
#>  1     0 A1    2019-01-24 12:13:31       0 Epoch (GP-1)   0.141
#>  2     0 A1    2019-01-24 12:26:18     767 Epoch (GP-1)   0.141
#>  3     0 A1    2019-01-24 12:39:26    1555 Epoch (GP-1)   0.142
#>  4     0 A1    2019-01-24 12:52:34    2343 Epoch (GP-1)   0.148
#>  5     0 A1    2019-01-24 13:05:42    3131 Epoch (GP-1)   0.146
#>  6     0 A1    2019-01-24 13:18:50    3919 Epoch (GP-1)   0.145
#>  7     0 A1    2019-01-24 13:31:58    4707 Epoch (GP-1)   0.147
#>  8     0 A1    2019-01-24 13:45:06    5495 Epoch (GP-1)   0.149
#>  9     0 A1    2019-01-24 13:58:14    6283 Epoch (GP-1)   0.151
#> 10     0 A1    2019-01-24 14:11:22    7071 Epoch (GP-1)   0.152
#> # … with 21,158 more rows
```
…
